%YAML 1.1
%TAG !u! tag:unity3d.com,2011:
--- !u!1045 &1
EditorBuildSettings:
  m_ObjectHideFlags: 0
  serializedVersion: 2
  m_Scenes:
  - enabled: 1
    path: Assets/Scenes/MenuScene.unity
    guid: d583f05080ee3374ab67a51d92e760ef
  - enabled: 1
    path: Assets/Scenes/ControlsScene.unity
    guid: 0351f5d0b4027634f9c2749aefa78492
  - enabled: 1
    path: Assets/Scenes/LevelSelectScene.unity
    guid: 233093e354f6f9d4ca0a7fa20cf4b888
  - enabled: 1
    path: Assets/Scenes/GameScene_1.unity
    guid: 64046f4a1b3eb0b949fb070c1faac131
  - enabled: 1
    path: Assets/Scenes/GameScene_2.unity
    guid: 9479673bcba81774e9f5995ad3fca236
  - enabled: 1
    path: Assets/Scenes/GameScene_3.unity
    guid: edf48725b6e29e84d957b78f67c0ef6b
  - enabled: 1
    path: Assets/Scenes/WinScene.unity
    guid: fb69a0bfcb56870498c248af2406b432
  m_configObjects: {}
